Lab 2 Team Report
…
print(ratingByCompany)

## # A tibble: 541 x 2
##    Company                              Rating
##    <chr>                                 <dbl>
##  1 Tobago Estate (Pralus)                 4   
##  2 Heirloom Cacao Preservation (Zokoko)   3.88
##  3 Ocelot                                 3.88
##  4 Matale                                 3.81
##  5 Patric                                 3.79
##  6 Idilio (Felchlin)                      3.78
##  7 Chocola'te                             3.75
##  8 Christopher Morel (Felchlin)           3.75
##  9 Dole (Guittard)                        3.75
## 10 Kerchner                               3.75
## # ... with 531 more rows
…
print(ratingByIngredients)

## # A tibble: 22 x 2
##    Ingredients    Rating
##    <chr>           <dbl>
##  1 3- B,S*,Sa       2.5 
##  2 3- B,S,L         2.69
##  3 5-B,S,C,V,Sa     2.79
##  4 <NA>             2.82
##  5 4- B,S*,C,L      2.88
##  6 4- B,S,V,L       2.9 
##  7 3- B,S*,C        2.94
##  8 6-B,S,C,V,L,Sa   2.94
##  9 1- B             2.95
## 10 2- B,S*          2.96
## # ... with 12 more rows
…
